<?xml version="1.0" encoding="UTF-8" standalone="no"?>
<!-- Created with Inkscape (http://www.inkscape.org/) -->

<svg
   xmlns:dc="http://purl.org/dc/elements/1.1/"
   xmlns:cc="http://creativecommons.org/ns#"
   xmlns:rdf="http://www.w3.org/1999/02/22-rdf-syntax-ns#"
   xmlns:svg="http://www.w3.org/2000/svg"
   xmlns="http://www.w3.org/2000/svg"
   xmlns:sodipodi="http://sodipodi.sourceforge.net/DTD/sodipodi-0.dtd"
   xmlns:inkscape="http://www.inkscape.org/namespaces/inkscape"
   width="2.0180554mm"
   height="11.597134mm"
   viewBox="0 0 7.15059 41.092205"
   id="svg2"
   version="1.1"
   inkscape:version="0.91 r13725"
   sodipodi:docname="waveMiddle.svg">
  <defs
     id="defs4" />
  <sodipodi:namedview
     id="base"
     pagecolor="#ffffff"
     bordercolor="#666666"
     borderopacity="1.0"
     inkscape:pageopacity="0"
     inkscape:pageshadow="2"
     inkscape:zoom="32"
     inkscape:cx="-1.3695968"
     inkscape:cy="19.347156"
     inkscape:document-units="px"
     inkscape:current-layer="layer1"
     showgrid="false"
     fit-margin-top="0"
     fit-margin-left="0"
     fit-margin-right="0"
     fit-margin-bottom="0"
     inkscape:window-width="1366"
     inkscape:window-height="709"
     inkscape:window-x="0"
     inkscape:window-y="0"
     inkscape:window-maximized="1"
     showguides="true"
     inkscape:guide-bbox="true">
    <sodipodi:guide
       position="-40.336266,25.143863"
       orientation="0,1"
       id="guide4167" />
    <sodipodi:guide
       position="-29.729664,15.294875"
       orientation="0,1"
       id="guide4169" />
    <sodipodi:guide
       position="-32.760121,30.068357"
       orientation="0,1"
       id="guide4171" />
    <sodipodi:guide
       position="-31.876237,10.370381"
       orientation="0,1"
       id="guide4173" />
  </sodipodi:namedview>
  <metadata
     id="metadata7">
    <rdf:RDF>
      <cc:Work
         rdf:about="">
        <dc:format>image/svg+xml</dc:format>
        <dc:type
           rdf:resource="http://purl.org/dc/dcmitype/StillImage" />
        <dc:title />
      </cc:Work>
    </rdf:RDF>
  </metadata>
  <g
     inkscape:label="Ebene 1"
     inkscape:groupmode="layer"
     id="layer1"
     transform="translate(-126.7592,-456.65765)">
    <g
       id="g4704"
       transform="translate(0,-0.22242629)">
      <g
         id="g4974-6"
         transform="translate(19.567928,0.25)">
        <path
           class="wave fill"
           sodipodi:nodetypes="cccccccccc"
           inkscape:connector-curvature="0"
           id="path4161-3-27-0-0"
           d="m 112.5617,475.28719 c 0.20741,0.003 0.40559,0.0862 0.55274,0.23242 0.39566,0.39568 0.78468,0.76454 1.22742,1.13852 0,0 -0.006,1.74137 -0.006,2.17966 -0.64314,-0.58781 -1.12078,-1.01516 -1.7859,-1.66193 -0.73355,0.67238 -1.79819,1.65707 -1.79819,1.65707 l -0.002,-2.17238 c 0.45412,-0.3884 0.86777,-0.77514 1.23372,-1.14108 0.15338,-0.15241 0.36192,-0.23625 0.57812,-0.23242 z"
           style="color:#000000;font-style:normal;font-variant:normal;font-weight:normal;font-stretch:normal;font-size:medium;line-height:normal;font-family:sans-serif;text-indent:0;text-align:start;text-decoration:none;text-decoration-line:none;text-decoration-style:solid;text-decoration-color:#000000;letter-spacing:normal;word-spacing:normal;text-transform:none;direction:ltr;block-progression:tb;writing-mode:lr-tb;baseline-shift:baseline;text-anchor:start;white-space:normal;clip-rule:nonzero;display:inline;overflow:visible;visibility:visible;opacity:1;isolation:auto;mix-blend-mode:normal;color-interpolation:sRGB;color-interpolation-filters:linearRGB;solid-color:#000000;solid-opacity:1;fill:#ff1800;fill-opacity:1;fill-rule:evenodd;stroke:none;stroke-width:1.60000002;stroke-linecap:butt;stroke-linejoin:round;stroke-miterlimit:4;stroke-dasharray:none;stroke-dashoffset:0;stroke-opacity:1;color-rendering:auto;image-rendering:auto;shape-rendering:auto;text-rendering:auto;enable-background:accumulate" />
        <path
           class="wave fill"
           sodipodi:nodetypes="cccccccccc"
           inkscape:connector-curvature="0"
           id="path4161-3-27-0-3-6"
           d="m 109.0032,480.18406 c 0.20741,-0.003 0.40559,-0.0862 0.55274,-0.23242 0.39566,-0.39568 0.78468,-0.76454 1.22742,-1.13852 0,0 -0.006,-1.74137 -0.006,-2.17966 -0.64314,0.58781 -1.12078,1.01516 -1.7859,1.66193 -0.73355,-0.67238 -1.79819,-1.65707 -1.79819,-1.65707 l -0.002,2.17238 c 0.45412,0.3884 0.86777,0.77514 1.23372,1.14108 0.15338,0.15241 0.36192,0.23625 0.57812,0.23242 z"
           style="color:#000000;font-style:normal;font-variant:normal;font-weight:normal;font-stretch:normal;font-size:medium;line-height:normal;font-family:sans-serif;text-indent:0;text-align:start;text-decoration:none;text-decoration-line:none;text-decoration-style:solid;text-decoration-color:#000000;letter-spacing:normal;word-spacing:normal;text-transform:none;direction:ltr;block-progression:tb;writing-mode:lr-tb;baseline-shift:baseline;text-anchor:start;white-space:normal;clip-rule:nonzero;display:inline;overflow:visible;visibility:visible;opacity:1;isolation:auto;mix-blend-mode:normal;color-interpolation:sRGB;color-interpolation-filters:linearRGB;solid-color:#000000;solid-opacity:1;fill:#ff1800;fill-opacity:1;fill-rule:evenodd;stroke:none;stroke-width:1.60000002;stroke-linecap:butt;stroke-linejoin:round;stroke-miterlimit:4;stroke-dasharray:none;stroke-dashoffset:0;stroke-opacity:1;color-rendering:auto;image-rendering:auto;shape-rendering:auto;text-rendering:auto;enable-background:accumulate" />
      </g>
    </g>
  </g>
</svg>
